Step,ObjectName,Description,Action,Input,Condition,Reference
1,headerHealthQuestions,,waitForElementToBePresent,,,HealthQuestions
2,headerHealthQuestions,,assertText,@Health Questions,,HealthQuestions
3,btnMark,,clickAndWait,,,HealthQuestions
4,headerHeightAndWeight,,waitForElementToBePresent,,,HealthQuestions
5,headerHeightAndWeight,,assertText,@Height and Weight - Primary Insured,,HealthQuestions
6,drpdownHeightFeet,,selectByVisibleText,HealthQuestions:Height_Feet,,HealthQuestions
7,drpdownHeightInch,,selectByVisibleText,HealthQuestions:Height_Inch,,HealthQuestions
8,txtWeight,,Set,HealthQuestions:Weight,,HealthQuestions
9,radioLostWeight,,Click,,,HealthQuestions
//10,Save,,moveTo,,,Existing
11,Save,,clickByJS,,,Existing
12,radio1,,waitForElementToBePresent,,,HealthQuestions
13,radio1,,Click,,,HealthQuestions
14,radio2,,Click,,,HealthQuestions
15,radio3,,Click,,,HealthQuestions
16,radio4,,Click,,,HealthQuestions
17,radio5,,Click,,,HealthQuestions
18,radio6,,Click,,,HealthQuestions
19,radio7,,Click,,,HealthQuestions
20,radio8,,Click,,,HealthQuestions
21,radio9,,Click,,,HealthQuestions
22,radio10,,Click,,,HealthQuestions
23,radio11,,Click,,,HealthQuestions
24,Browser,,takeScreenshot,,,
25,btnNext,,clickAndWait,,,HealthQuestions
26,Browser,,waitForPageLoaded,,,
