Step,ObjectName,Description,Action,Input,Condition,Reference
1,txtFirstName,,waitForElementToBePresent,,,PremiumInformation
2,txtFirstName,,Set,PremiumPayorInformation:FirstName,,PremiumInformation
3,txtLastName,,Set,PremiumPayorInformation:LastName,,PremiumInformation
4,txtStreetAddress,,Set,PremiumPayorInformation:StreetAddress,,PremiumInformation
5,txtCity,,Set,PremiumPayorInformation:City,,PremiumInformation
6,drpdownState,,selectByVisibleText,PremiumPayorInformation:State,,PremiumInformation
7,txtZip,,Set,PremiumPayorInformation:Zip,,PremiumInformation
8,Browser,,takeScreenshot,,,
9,,,,,,
10,,,,,,
11,,,,,,
12,,,,,,
13,,,,,,
14,,,,,,
