Step,ObjectName,Description,Action,Input,Condition,Reference
1,headerHealthQuestionsChild_ren,,waitForElementToBePresent,,,HealthQuestion_Children
2,radioHealthQn1,,Click,,,HealthQuestion_Children
3,radioHealthQn2,,Click,,,HealthQuestion_Children
4,radioHealthQn3,,Click,,,HealthQuestion_Children
5,radioHealthQn4,,Click,,,HealthQuestion_Children
6,radioHealthQn5,,Click,,,HealthQuestion_Children
7,radioHealthQn6,,Click,,,HealthQuestion_Children
8,radioHealthQn7,,Click,,,HealthQuestion_Children
9,radioHealthQn8,,Click,,,HealthQuestion_Children
10,radioHealthQn9,,Click,,,HealthQuestion_Children
11,radioHealthQn10,,Click,,,HealthQuestion_Children
12,radioHealthQn11,,Click,,,HealthQuestion_Children
13,radioHealthQn12,,Click,,,HealthQuestion_Children
14,radioHealthQn13,,Click,,,HealthQuestion_Children
15,radioHealthQn14,,Click,,,HealthQuestion_Children
16,radioHealthQn15,,Click,,,HealthQuestion_Children
17,radioHealthQn16,,Click,,,HealthQuestion_Children
18,radioHealthQn17,,Click,,,HealthQuestion_Children
19,radioHealthQn18,,Click,,,HealthQuestion_Children
20,radioHealthQn19,,Click,,,HealthQuestion_Children
21,Browser,,takeScreenshot,,,
22,btnNext,,clickAndWait,,,HealthQuestion_Children
